…
1. OTP를 제출할 url을 down_url에 입력합니다.
2. `POST()` 함수를 통해 해당 url에 위에서 부여받은 OTP 코드를 제출합니다. 
3. `add_headers()` 구문을 통해 referer를 추가해 주어야 합니다. 리퍼러란 링크를 통해서 각각의 사이트로 방문시 남는 흔적입니다. 데이터를 다운로드 받는 과정을 살펴보면 첫번째 url에서 OTP를 부여 받고, 이를 다시 두번째 url에 제출하였습니다. 그런데 이러한 과정의 흔적이 없이 OTP를 바로 두번째 url에 제출하면 서버는 이를 로봇으로 인식하여 데이터를 반환하지 않습니다. 따라서 add_headers()를 통해 우리가 거쳐온 과정을 흔적으로 남겨야 사람이 데이터를 다운로드 받는 과정과 동일하게 인식하여 데이터를 반환하게 되며, 첫번째 url을 리퍼러로 지정해 줍니다.
4. `read_html()`과 `html_text()` 함수를 통해 텍스트 데이터만 추출합니다.
5. `read_csv` 함수는 csv 형태의 데이터를 불러옵니다. 위의 요청 쿼리에서 filetype을 csv로 지정했기에, 손쉽게 데이터를 읽어올 수 있습니다.


```r
print(down_sector)
```

```
## # A tibble: 2,243 x 7
##    시장구분 종목코드 종목명 산업분류 `현재가(종가)` 전일대비 `시가총액(원)`
##    <chr>    <chr>    <chr>  <chr>             <dbl>    <dbl>          <dbl>
##  1 코스피   030720   동원수산~ 어업               8940      -20    41605016700
##  2 코스피   007160   사조산업~ 어업              54400      800   272000000000
##  3 코스피   006040   동원산업~ 어업             246500      500   829028800000
##  4 코스피   004970   신라교역~ 어업              14350      350   229600000000
##  5 코스피   012320   경동인베스~ 광업              40300     1350    95310426900
##  6 코스피   003580   넥스트사이~ 광업               5200      260   122099322800
##  7 코스피   017810   풀무원 음식료품          11300      200   430427735000
##  8 코스피   280360   롯데제과~ 음식료품         159500     -500  1023466361500
##  9 코스피   271560   오리온 음식료품          83300     1400  3293359795600
## 10 코스피   006090   사조오양~ 음식료품           8220       30    77454914580
## # ... with 2,233 more rows
```
…
down_url = 'http://file.krx.co.kr/download.jspx'
down_ind = POST(down_url, query = list(code = otp),
            add_headers(referer = gen_otp_url)) %>%
  read_html() %>%
  html_text() %>%
  read_csv()
```


```r
print(down_ind)
```

```
## # A tibble: 2,204 x 13
##    일자       종목코드 종목명 관리여부  종가 EPS   PER   BPS   PBR  
##    <date>     <chr>    <chr>  <chr>    <dbl> <chr> <chr> <chr> <chr>
##  1 2019-06-07 060300   레드로버~ -         1190 -     -     2,128 0.56 
##  2 2019-06-07 290650   엘앤씨바이~ -        22750 830   27.41 7,252 3.14 
##  3 2019-06-07 239340   미래에셋제~ -         5200 -     -     -     -    
##  4 2019-06-07 033430   디에스티~ -         1310 -     -     338   3.88 
##  5 2019-06-07 192390   윈하이텍~ -         4590 669   6.86  5,803 0.79 
##  6 2019-06-07 038680   에스넷 -         9600 300   32    4,302 2.23 
##  7 2019-06-07 214680   디알텍 -         2005 29    69.14 709   2.83 
##  8 2019-06-07 242040   나무기술~ -         3345 -     -     462   7.24 
##  9 2019-06-07 121890   에스디시스~ -         4980 -     -     1,912 2.6  
## 10 2019-06-07 088800   에이스테크~ -        11500 97    118.~ 2,291 5.02 
## # ... with 2,194 more rows, and 4 more variables: 주당배당금 <dbl>,
## #   배당수익률 <dbl>, `게시물 일련번호` <dbl>, 총카운트 <dbl>
```
…
