…
url = paste0('https://fchart.stock.naver.com/siseJson.nhn?symbol=', name,
             '&requestType=1&startTime=', from, '&endTime=', to, '&timeframe=day')

data = GET(url)
data_html = data %>% read_html %>%
  html_text() %>%
  read_csv()

print(data_html)
```

```
## # A tibble: 1,481 x 8
##    `[['날짜'` `'시가'` `'고가'` `'저가'` `'종가'`
##    <chr>         <dbl>    <dbl>    <dbl>    <dbl>
##  1  <NA>            NA       NA       NA       NA
##  2  <NA>            NA       NA       NA       NA
##  3  <NA>            NA       NA       NA       NA
##  4 "[\"20180…    51200    51480    50900    51220
##  5  <NA>            NA       NA       NA       NA
##  6 "[\"20180…    50440    50640    49780    49800
##  7  <NA>            NA       NA       NA       NA
##  8 "[\"20180…    50020    54140    49600    49900
##  9  <NA>            NA       NA       NA       NA
## 10 "[\"20180…    50620    50960    49720    49820
## # … with 1,471 more rows, and 3 more variables:
## #   `'거래량'` <dbl>, `'외국인소진율']` <chr>, X8 <lgl>
```
…
