…
위 예제는 섹터를 기준으로 데이터를 묶은 후 `summarize()`를 통해 각 섹터에 속하는 종목의 PBR 중앙값을 구한 후 정렬했습니다.


```r
data_market %>%
  group_by(`시장구분`, `SEC_NM_KOR`) %>%
  summarize(PBR_median = median(PBR, na.rm = TRUE)) %>%
  arrange(PBR_median)
```

```
## # A tibble: 22 x 3
## # Groups:   시장구분 [2]
##    시장구분 SEC_NM_KOR         PBR_median
##    <chr>    <chr>                   <dbl>
##  1 코스피   유틸리티                0.46 
##  2 코스피   금융                    0.575
##  3 코스피   소재                    0.69 
##  4 코스피   경기관련소비재          0.79 
##  5 코스피   에너지                  0.8  
##  6 코스피   필수소비재              0.81 
##  7 코스피   산업재                  0.83 
##  8 코스피   커뮤니케이션서비스      0.92 
##  9 코스닥   유틸리티                0.93 
## 10 코스닥   에너지                  1.02 
## # ... with 12 more rows
```
…
