R 기초 배우기 | R을 이용한 퀀트 투자 포트폴리오 만들기(개정판)
…
replace_na() 함수를 이용해 person 열의 NA 데이터를 unknown으로, Math열의 NA 데이터를 0으로 변경하였습니다.

0.9.2 dplyr 패키지를 이용한 데이터 변형하기

데이터를 필터링 하거나, 요약하거나, 정렬하거나, 새로운 변수를 만드는 등 데이터 분석을 위해서는 데이터 변형하고 가공해야 하는 경우가 많습니다. R의 기본 함수도 이러한 기능을 제공하지만, dplyr 패키지를 이용할 경우 훨씬 빠르고 효율적으로 업무를 처리할 수 있습니다.

nycflights13 패키지의 flights 데이터셋을 예제로 사용하도록 하겠습니다.

library(dplyr)
library(nycflights13)

flights

## # A tibble: 336,776 x 19
##     year month   day dep_time sched_dep_time dep_delay arr_time sched_arr_time
##    <int> <int> <int>    <int>          <int>     <dbl>    <int>          <int>
##  1  2013     1     1      517            515         2      830            819
##  2  2013     1     1      533            529         4      850            830
##  3  2013     1     1      542            540         2      923            850
##  4  2013     1     1      544            545        -1     1004           1022
##  5  2013     1     1      554            600        -6      812            837
##  6  2013     1     1      554            558        -4      740            728
##  7  2013     1     1      555            600        -5      913            854
##  8  2013     1     1      557            600        -3      709            723
##  9  2013     1     1      557            600        -3      838            846
## 10  2013     1     1      558            600        -2      753            745
## # ... with 336,766 more rows, and 11 more variables: arr_delay <dbl>,
## #   carrier <chr>, flight <int>, tailnum <chr>, origin <chr>, dest <chr>,
## #   air_time <dbl>, distance <dbl>, hour <dbl>, minute <dbl>, time_hour <dttm>
…
해당 데이터는 그룹별로 묶여 있으므로, summarise() 함수를 적용하면 각 그룹(year, month, day) 별로 dep_delay의 평균을 구합니다.

flights %>% group_by(dest) %>%
  summarize(
    count = n(),
    dist = mean(distance, na.rm = TRUE),
    delay = mean(arr_delay, na.rm = TRUE)
)

## # A tibble: 105 x 4
##    dest  count  dist delay
##    <chr> <int> <dbl> <dbl>
##  1 ABQ     254 1826   4.38
##  2 ACK     265  199   4.85
##  3 ALB     439  143  14.4 
##  4 ANC       8 3370  -2.5 
##  5 ATL   17215  757. 11.3 
##  6 AUS    2439 1514.  6.02
##  7 AVL     275  584.  8.00
##  8 BDL     443  116   7.05
##  9 BGR     375  378   8.03
## 10 BHM     297  866. 16.9 
## # ... with 95 more rows
…
