Chapter 5 금융 데이터 수집하기 (기본) | R을 이용한 퀀트 투자 포트폴리오 만들기
…
OTP를 제출할 URL을 down_url에 입력합니다.

POST() 함수를 통해 위에서 부여받은 OTP 코드를 해당 URL에 제출합니다.

add_headers() 구문을 통해 리퍼러(referer)를 추가해야 합니다. 리퍼러란 링크를 통해서 각각의 웹사이트로 방문할 때 남는 흔적입니다. 거래소 데이터를 다운로드하는 과정을 살펴보면 첫 번째 URL에서 OTP를 부여받고, 이를 다시 두번째 URL에 제출했습니다. 그런데 이러한 과정의 흔적이 없이 OTP를 바로 두번째 URL에 제출하면 서버는 이를 로봇으로 인식해 데이터를 반환하지 않습니다. 따라서 add_headers() 함수를 통해 우리가 거쳐온 과정을 흔적으로 남겨
야 데이터를 반환하게 되며 첫 번째 URL을 리퍼러로 지정해줍니다.

read_html()과 html_text() 함수를 통해 텍스트 데이터만 추출합니다.

read_csv() 함수는 csv 형태의 데이터를 불러옵니다. 위의 요청 쿼리에서 filetype을 csv로 지정했으므로 손쉽게 데이터를 읽어올 수 있습니다.

print(down_sector)

## # A tibble: 2,243 x 7
##    시장구분 종목코드 종목명 산업분류 `현재가(종가)`
##    <chr>    <chr>    <chr>  <chr>             <dbl>
##  1 코스피   030720   동원수산… 어업               8940
##  2 코스피   007160   사조산업… 어업              54400
##  3 코스피   004970   신라교역… 어업              14350
##  4 코스피   006040   동원산업… 어업             246500
##  5 코스피   006090   사조오양… 음식료품           8220
##  6 코스피   017810   풀무원 음식료품          11300
##  7 코스피   000087   하이트진로… 음식료품          16650
##  8 코스피   097955   CJ제일제… 음식료품         124500
##  9 코스피   097950   CJ제일제… 음식료품         280000
## 10 코스피   007310   오뚜기 음식료품         694000
## # … with 2,233 more rows, and 2 more variables:
## #   전일대비 <dbl>, `시가총액(원)` <dbl>
…
otp = POST(gen_otp_url, query = gen_otp_data) %>%
  read_html() %>%
  html_text()

down_url = 'http://file.krx.co.kr/download.jspx'
down_ind = POST(down_url, query = list(code = otp),
                add_headers(referer = gen_otp_url)) %>%
  read_html() %>%
  html_text() %>%
  read_csv()

print(down_ind)

## # A tibble: 2,204 x 13
##    일자       종목코드 종목명 관리여부  종가 EPS   PER  
##    <date>     <chr>    <chr>  <chr>    <dbl> <chr> <chr>
##  1 2019-06-07 000250   삼천당제약… -        39650 409   96.94
##  2 2019-06-07 000440   중앙에너비… -         6880 958   7.18 
##  3 2019-06-07 001000   신라섬유… -         2225 7     317.…
##  4 2019-06-07 001540   안국약품… -        11350 1,154 9.84 
##  5 2019-06-07 001810   무림SP -         2795 505   5.53 
##  6 2019-06-07 001840   이화공영… -         5290 24    220.…
##  7 2019-06-07 002230   피에스텍… -         4275 -     -    
##  8 2019-06-07 002290   삼일기업공… -         3185 250   12.74
##  9 2019-06-07 002680   한탑   -         2435 -     -    
## 10 2019-06-07 002800   신신제약… -         7050 191   36.91
## # … with 2,194 more rows, and 6 more variables:
## #   BPS <chr>, PBR <chr>, 주당배당금 <dbl>,
## #   배당수익률 <dbl>, `게시물 일련번호` <dbl>,
## #   총카운트 <dbl>
…
