Chapter 6 금융 데이터 수집하기 (심화) | R을 이용한 퀀트 투자 포트폴리오 만들기
…
from = (Sys.Date() - years(3)) %>% str_remove_all('-')
to = Sys.Date() %>% str_remove_all('-')

url = paste0('https://fchart.stock.naver.com/siseJson.nhn?symbol=', name,
             '&requestType=1&startTime=', from, '&endTime=', to, '&timeframe=day')

data = GET(url)
data_html = data %>% read_html %>%
  html_text() %>%
  read_csv()

print(data_html)

## # A tibble: 1,479 x 8
##    `[['날짜'` `'시가'` `'고가'` `'저가'` `'종가'`
##    <chr>         <dbl>    <dbl>    <dbl>    <dbl>
##  1  <NA>            NA       NA       NA       NA
##  2  <NA>            NA       NA       NA       NA
##  3  <NA>            NA       NA       NA       NA
##  4 "[\"20180…    48860    49700    48560    49340
##  5  <NA>            NA       NA       NA       NA
##  6 "[\"20180…    49220    50360    49160    50260
##  7  <NA>            NA       NA       NA       NA
##  8 "[\"20180…    50500    50780    49840    50780
##  9  <NA>            NA       NA       NA       NA
## 10 "[\"20180…    51200    51480    50900    51220
## # … with 1,469 more rows, and 3 more variables:
## #   `'거래량'` <dbl>, `'외국인소진율']` <chr>, X8 <lgl>
…
