Chapter 8 데이터 분석 및 시각화하기 | R을 이용한 퀀트 투자 포트폴리오 만들기(개정판)
…
위 예제는 섹터를 기준으로 데이터를 묶은 후 summarize()를 통해 각 섹터에 속하는 종목의 PBR 중앙값을 구한 후 정렬했습니다.

data_market %>%
  group_by(`시장구분`, `SEC_NM_KOR`) %>%
  summarize(PBR_median = median(PBR, na.rm = TRUE)) %>%
  arrange(PBR_median)

## # A tibble: 22 x 3
## # Groups:   시장구분 [2]
##    시장구분 SEC_NM_KOR     PBR_median
##    <chr>    <chr>               <dbl>
##  1 KOSPI    금융                0.62 
##  2 KOSPI    유틸리티            0.65 
##  3 KOSPI    필수소비재          0.825
##  4 KOSPI    에너지              0.87 
##  5 KOSPI    경기관련소비재      1.02 
##  6 KOSPI    산업재              1.02 
##  7 KOSPI    소재                1.07 
##  8 KOSDAQ   유틸리티            1.34 
##  9 KOSDAQ   소재                1.42 
## 10 KOSDAQ   산업재              1.45 
## # ... with 12 more rows
…
